dplyr | 📦 R Package Showcase 💎
…
   mpg cyl disp  hp drat    wt  qsec vs am gear carb
1 10.4   8  472 205 2.93 5.250 17.98  0  0    3    4
2 10.4   8  460 215 3.00 5.424 17.82  0  0    3    4
3 14.7   8  440 230 3.23 5.345 17.42  0  0    3    4
4 19.2   8  400 175 3.08 3.845 17.05  0  0    3    2
5 18.7   8  360 175 3.15 3.440 17.02  0  0    3    2
6 14.3   8  360 245 3.21 3.570 15.84  0  0    3    4

as_data_frame

リストをデータフレームに変換

> list(x = 1:500, y = runif(500), z = 500:1) %>% as_data_frame()

# A tibble: 500 × 3
       x         y     z
   <int>     <dbl> <int>
1      1 0.9273211   500
2      2 0.9970740   499
3      3 0.9974189   498
4      4 0.4216703   497
5      5 0.6239832   496
6      6 0.9491403   495
7      7 0.5610406   494
8      8 0.2557731   493
9      9 0.5208065   492
10    10 0.9283932   491
# ... with 490 more rows
…
group_by

水準をグループごとにまとめる

> group_by(mtcars, cyl, vs)

Source: local data frame [32 x 11]
Groups: cyl, vs [5]

     mpg   cyl  disp    hp  drat    wt  qsec    vs    am  gear  carb
*  <dbl> <dbl> <dbl> <dbl> <dbl> <dbl> <dbl> <dbl> <dbl> <dbl> <dbl>
1   21.0     6 160.0   110  3.90 2.620 16.46     0     1     4     4
2   21.0     6 160.0   110  3.90 2.875 17.02     0     1     4     4
3   22.8     4 108.0    93  3.85 2.320 18.61     1     1     4     1
4   21.4     6 258.0   110  3.08 3.215 19.44     1     0     3     1
5   18.7     8 360.0   175  3.15 3.440 17.02     0     0     3     2
6   18.1     6 225.0   105  2.76 3.460 20.22     1     0     3     1
7   14.3     8 360.0   245  3.21 3.570 15.84     0     0     3     4
8   24.4     4 146.7    62  3.69 3.190 20.00     1     0     4     2
9   22.8     4 140.8    95  3.92 3.150 22.90     1     0     4     2
10  19.2     6 167.6   123  3.92 3.440 18.30     1     0     4     4
# ... with 22 more rows
…
x

wt

sort

..., vars

> data("Batting", package = "Lahman")
> 
> batting_tbl <- tbl_df(Batting)
> tally(group_by(batting_tbl, yearID))

# A tibble: 145 × 2
   yearID     n
    <int> <int>
1    1871   115
2    1872   156
3    1873   125
4    1874   123
5    1875   218
6    1876   124
7    1877    97
8    1878    80
9    1879   127
10   1880   135
# ... with 135 more rows

> tally(group_by(batting_tbl, yearID), sort = TRUE)

# A tibble: 145 × 2
   yearID     n
    <int> <int>
1    2015  1486
2    2014  1435
3    2013  1409
4    2012  1408
5    2011  1389
6    2009  1388
7    2007  1385
8    2008  1385
9    2000  1384
10   2006  1378
# ... with 135 more rows

> # Multiple tallys progressively roll up the groups
> plays_by_year <- tally(group_by(batting_tbl, playerID, stint), sort = TRUE)
> tally(plays_by_year, sort = TRUE)

Using n as weighting variable

# A tibble: 18,659 × 2
    playerID    nn
       <chr> <int>
1  mcguide01    31
2  henderi01    29
3  newsobo01    29
4   johnto01    28
5   kaatji01    28
6  ansonca01    27
7  baineha01    27
8  carltst01    27
9  moyerja01    27
10  ryanno01    27
# ... with 18,649 more rows

> tally(tally(plays_by_year))

Using n as weighting variable

# A tibble: 1 × 1
      n
  <int>
1 18659

> # This looks a little nicer if you use the infix %>% operator
> batting_tbl %>% group_by(playerID) %>% tally(sort = TRUE)

# A tibble: 18,659 × 2
    playerID     n
       <chr> <int>
1  mcguide01    31
2  henderi01    29
3  newsobo01    29
4   johnto01    28
5   kaatji01    28
6  ansonca01    27
7  baineha01    27
8  carltst01    27
9  moyerja01    27
10  ryanno01    27
# ... with 18,649 more rows

> # count is even more succinct - it also does the grouping for you
> batting_tbl %>% count(playerID)

# A tibble: 18,659 × 2
    playerID     n
       <chr> <int>
1  aardsda01     9
2  aaronha01    23
3  aaronto01     7
4   aasedo01    13
5   abadan01     3
6   abadfe01     6
7  abadijo01     2
8  abbated01    10
9  abbeybe01     6
10 abbeych01     5
# ... with 18,649 more rows

> batting_tbl %>% count(playerID, wt = G)

# A tibble: 18,659 × 2
    playerID     n
       <chr> <int>
1  aardsda01   331
2  aaronha01  3298
3  aaronto01   437
4   aasedo01   448
5   abadan01    15
6   abadfe01   258
7  abadijo01    12
8  abbated01   855
9  abbeybe01    79
10 abbeych01   451
# ... with 18,649 more rows

> batting_tbl %>% count(playerID, wt = G, sort = TRUE)

# A tibble: 18,659 × 2
    playerID     n
       <chr> <int>
1   rosepe01  3562
2  yastrca01  3308
3  aaronha01  3298
4  henderi01  3081
5   cobbty01  3035
6  murraed02  3026
7  musiast01  3026
8  ripkeca01  3001
9   mayswi01  2992
10 bondsba01  2986
# ... with 18,649 more rows

tbl / is.tbl / as.tbl

データからテーブルを作成する

> as.tbl(mtcars)

# A tibble: 32 × 11
     mpg   cyl  disp    hp  drat    wt  qsec    vs    am  gear  carb
*  <dbl> <dbl> <dbl> <dbl> <dbl> <dbl> <dbl> <dbl> <dbl> <dbl> <dbl>
1   21.0     6 160.0   110  3.90 2.620 16.46     0     1     4     4
2   21.0     6 160.0   110  3.90 2.875 17.02     0     1     4     4
3   22.8     4 108.0    93  3.85 2.320 18.61     1     1     4     1
4   21.4     6 258.0   110  3.08 3.215 19.44     1     0     3     1
5   18.7     8 360.0   175  3.15 3.440 17.02     0     0     3     2
6   18.1     6 225.0   105  2.76 3.460 20.22     1     0     3     1
7   14.3     8 360.0   245  3.21 3.570 15.84     0     0     3     4
8   24.4     4 146.7    62  3.69 3.190 20.00     1     0     4     2
9   22.8     4 140.8    95  3.92 3.150 22.90     1     0     4     2
10  19.2     6 167.6   123  3.92 3.440 18.30     1     0     4     4
# ... with 22 more rows
…
