widyr | 📦 R Package Showcase 💎
…
# A tibble: 6 x 4
      country continent  year lifeExp
       <fctr>    <fctr> <int>   <dbl>
1 Afghanistan      Asia  1952  28.801
2 Afghanistan      Asia  1957  30.332
3 Afghanistan      Asia  1962  31.997
4 Afghanistan      Asia  1967  34.020
5 Afghanistan      Asia  1972  36.088
6 Afghanistan      Asia  1977  38.438

> gapminder %>%
+   cast_dual(country, year, lifeExp, sparse = FALSE)

$tbl
# A tibble: 142 x 2
       country continent
        <fctr>    <fctr>
1  Afghanistan      Asia
2      Albania      Asia
3      Algeria      Asia
4       Angola      Asia
5    Argentina      Asia
6    Australia      Asia
7      Austria      Asia
8      Bahrain      Asia
9   Bangladesh      Asia
10     Belgium      Asia
# ... with 132 more rows
…
attr(,"class")
[1] "cast_tbl"

cor_sparse

pairwise_cor

> gapminder %>%
+   pairwise_cor(country, year, lifeExp)

# A tibble: 20,022 x 3
        item1       item2 correlation
       <fctr>      <fctr>       <dbl>
1     Albania Afghanistan   0.9656953
2     Algeria Afghanistan   0.9868220
3      Angola Afghanistan   0.9855294
4   Argentina Afghanistan   0.9705203
5   Australia Afghanistan   0.9393751
6     Austria Afghanistan   0.9557228
7     Bahrain Afghanistan   0.9956190
8  Bangladesh Afghanistan   0.9466653
9     Belgium Afghanistan   0.9626319
10      Benin Afghanistan   0.9970561
# ... with 20,012 more rows
…
pairwise_dist

> gapminder %>%
+   pairwise_dist(country, year, lifeExp) %>%
+   arrange(distance)

# A tibble: 20,022 x 3
            item1          item2 distance
           <fctr>         <fctr>    <dbl>
1         Germany        Belgium 1.075702
2         Belgium        Germany 1.075702
3  United Kingdom    New Zealand 1.509025
4     New Zealand United Kingdom 1.509025
5          Norway    Netherlands 1.557933
6     Netherlands         Norway 1.557933
7           Italy         Israel 1.662690
8          Israel          Italy 1.662690
9         Finland        Austria 1.936558
10        Austria        Finland 1.936558
# ... with 20,012 more rows

widely

> gapminder %>%
+   widely(dist, country, year, lifeExp)()

# A tibble: 10,011 x 3
        item1       item2     value
       <fctr>      <fctr>     <dbl>
1     Albania Afghanistan 107.41825
2     Algeria Afghanistan  76.75286
3      Angola Afghanistan   4.64934
4   Argentina Afghanistan 109.50686
5   Australia Afghanistan 128.95745
6     Austria Afghanistan 123.51771
7     Bahrain Afghanistan  98.13426
8  Bangladesh Afghanistan  45.33990
9     Belgium Afghanistan 125.41156
10      Benin Afghanistan  39.32262
# ... with 10,001 more rows
