broom | 📦 R Package Showcase 💎
…
bootstrap

ブーツストラップ

> set.seed(2014)
> mtcars %>% bootstrap(100) %>%
+     do(nls(mpg ~ k / wt + b, ., 
+            start = list(k = 1, b = 0)) %>% tidy())

Source: local data frame [200 x 6]
Groups: replicate [100]

   replicate  term  estimate std.error  statistic               p.value
       <int> <chr>     <dbl>     <dbl>      <dbl>                 <dbl>
1          1     k 46.632502  4.026016 11.5827898 0.0000000000013438910
2          1     b  4.360637  1.538267  2.8347730 0.0081295826056434223
3          2     k 54.182476  4.964976 10.9129374 0.0000000000057568288
4          2     b  1.004868  1.897196  0.5296599 0.6002459544903184785
5          3     k 43.257212  3.564860 12.1343382 0.0000000000004222953
6          3     b  4.833510  1.297909  3.7240748 0.0008101898545464388
7          4     k 48.531351  4.456883 10.8890786 0.0000000000060691584
8          4     b  3.509346  1.688979  2.0777907 0.0463841502374862380
9          5     k 52.605099  5.662690  9.2897713 0.0000000002472139494
10         5     b  3.344380  2.300411  1.4538184 0.1563790668011159068
# ... with 190 more rows
…
